22.5457745814166
45.0077813391536
73.1884905371111
27.7155530431281
-0.570013777007773
31.2819488297338
30.6552108412887
50.9497718465559
41.9252641300393
54.6299225648927
41.5525518414651
57.482367893906
42.6798845000597
73.8020289304213
35.2534494948554
55.8133329087853
32.3030086343109
54.1601295774166
49.0453965504295
16.3095870772282
47.115468867621
73.604273310053
63.6279984639901
52.864952617751
26.1536711257417
73.3845730557818
51.5840341789074
40.9645249446265
82.8405642560154
34.6081535680096
56.067219215157
75.6347484236703
62.0444559034086
43.8595547092633
41.6316379315472
57.1027106009217
60.2696222919911
50.3721480065748
76.3689794451336
48.6833600032369
35.9940784336459
60.7465226304268
5.96435355292164
57.8394748759682
59.9392190484744
45.502505691402
27.6571366933623
42.1001079337225
80.9966068447261
35.1297104040267
3.36575764540854
66.2449088441843
39.973786855973
39.7822686809529
25.6927191768998
49.5488274330556
64.0247860085941
38.250359488204
37.8654411716242
71.9328043000059
45.0498064583941
46.8019657335351
37.4844349852985
68.0086927120048
30.1161274146755
66.9850077176072
66.1140457795287
40.6479812801756
66.9684062744669
69.7353972719203
61.5124057703872
90.4968409083634
10.7529361754992
26.7015813872483
22.4696157253833
53.3535986893953
81.6925815831943
83.557779059525
59.7659339678991
67.5734652512065
47.1025025194024
59.3794352014842
57.5247095425897
34.7791944988704
44.1341013249827
47.3031747118496
77.8769163234604
29.2602262060342
7.71329704392684
65.365564364088
33.6767875849303
41.2778615367885
68.0941006256562
34.7382747090337
43.1786604072439
80.0484906846917
60.566154246328
60.8438271092862
47.2665328856425
27.2653229339454
